(module MountHole (layer F.Cu) (tedit 5EE33EA0)
  (fp_text reference REF** (at 0 0.5) (layer F.SilkS)
    (effects (font (size 1 1) (thickness 0.15)))
  )
  (fp_text value MountHole (at 0 -0.5) (layer F.Fab)
    (effects (font (size 1 1) (thickness 0.15)))
  )
  (pad "" thru_hole circle (at 0 0) (size 2.5 2.5) (drill 2.5) (layers *.Cu))
)
