(module UPDI_Header_1x02_P2.54mm_Horizontal (layer F.Cu) (tedit 5E652A9A)
  (descr "Through hole angled pin header, 1x02, 2.54mm pitch, 6mm pin length, single row")
  (tags "Through hole angled pin header THT 1x02 2.54mm single row")
  (fp_text reference REF** (at 0 -2.27) (layer F.SilkS)
    (effects (font (size 1 1) (thickness 0.15)))
  )
  (fp_text value UPDI_Header_1x02_P2.54mm_Horizontal (at 4.385 4.81) (layer F.Fab)
    (effects (font (size 1 1) (thickness 0.15)))
  )
  (fp_line (start -0.32 -0.32) (end -0.32 0.32) (layer F.Fab) (width 0.1))
  (fp_line (start -0.32 2.22) (end -0.32 2.86) (layer F.Fab) (width 0.1))
  (fp_line (start -1.27 0) (end -1.27 -1.27) (layer F.SilkS) (width 0.12))
  (fp_line (start -1.27 -1.27) (end 0 -1.27) (layer F.SilkS) (width 0.12))
  (fp_line (start 4.57 -1.27) (end 4.57 3.81) (layer F.SilkS) (width 0.12))
  (fp_line (start 7.11 -1.27) (end 7.11 3.81) (layer F.SilkS) (width 0.12))
  (fp_line (start 1.27 0) (end 3.81 0) (layer F.SilkS) (width 0.12))
  (fp_line (start 1.27 2.54) (end 3.81 2.54) (layer F.SilkS) (width 0.12))
  (pad 2 smd rect (at 0 0) (size 2 1.7) (layers F.Cu F.Paste F.Mask))
  (pad 1 smd rect (at 0 2.54) (size 2 1.7) (layers F.Cu F.Paste F.Mask))
  (model ${KISYS3DMOD}/Connector_PinHeader_2.54mm.3dshapes/PinHeader_1x02_P2.54mm_Horizontal.wrl
    (at (xyz 0 0 0))
    (scale (xyz 1 1 1))
    (rotate (xyz 0 0 0))
  )
)
