(module fab:fab-SOT-23 (layer F.Cu) (tedit 200000)
  (descr "SMALL OUTLINE TRANSISTOR")
  (tags "SMALL OUTLINE TRANSISTOR")
  (attr smd)
  (fp_text reference >NAME (at 1.778 -3.937) (layer F.SilkS)
    (effects (font (size 1.27 1.27) (thickness 0.127)))
  )
  (fp_text value >VALUE (at 2.413 -2.413) (layer F.SilkS)
    (effects (font (size 1.27 1.27) (thickness 0.127)))
  )
  (fp_line (start 0.7874 -0.4318) (end 1.1684 -0.4318) (layer F.SilkS) (width 0.06604))
  (fp_line (start 1.1684 -0.4318) (end 1.1684 -0.9398) (layer F.SilkS) (width 0.06604))
  (fp_line (start 0.7874 -0.9398) (end 1.1684 -0.9398) (layer F.SilkS) (width 0.06604))
  (fp_line (start 0.7874 -0.4318) (end 0.7874 -0.9398) (layer F.SilkS) (width 0.06604))
  (fp_line (start -1.143 -0.4318) (end -0.762 -0.4318) (layer F.SilkS) (width 0.06604))
  (fp_line (start -0.762 -0.4318) (end -0.762 -0.9398) (layer F.SilkS) (width 0.06604))
  (fp_line (start -1.143 -0.9398) (end -0.762 -0.9398) (layer F.SilkS) (width 0.06604))
  (fp_line (start -1.143 -0.4318) (end -1.143 -0.9398) (layer F.SilkS) (width 0.06604))
  (fp_line (start -0.1778 0.9398) (end 0.2032 0.9398) (layer F.SilkS) (width 0.06604))
  (fp_line (start 0.2032 0.9398) (end 0.2032 0.4318) (layer F.SilkS) (width 0.06604))
  (fp_line (start -0.1778 0.4318) (end 0.2032 0.4318) (layer F.SilkS) (width 0.06604))
  (fp_line (start -0.1778 0.9398) (end -0.1778 0.4318) (layer F.SilkS) (width 0.06604))
  (fp_line (start -1.4224 -0.381) (end 1.4732 -0.381) (layer B.SilkS) (width 0.1524))
  (fp_line (start 1.4732 -0.381) (end 1.4732 0.381) (layer B.SilkS) (width 0.1524))
  (fp_line (start 1.4732 0.381) (end -1.4224 0.381) (layer B.SilkS) (width 0.1524))
  (fp_line (start -1.4224 0.381) (end -1.4224 -0.381) (layer B.SilkS) (width 0.1524))
  (pad 1 smd rect (at 0.0254 1.016) (size 0.7874 0.889) (layers F.Cu F.Paste F.Mask))
  (pad 2 smd rect (at -0.9398 -1.016) (size 0.7874 0.889) (layers F.Cu F.Paste F.Mask))
  (pad 3 smd rect (at 0.9906 -1.016) (size 0.7874 0.889) (layers F.Cu F.Paste F.Mask))
)
